; Engine configuration file.
; It's best edited using the editor UI and not directly,
; since the parameters that go here are not all obvious.
;
; Format:
;   [section] ; section goes between []
;   param=value ; assign values to parameters

config_version=5

[application]

config/name="Indexing Your Heart"
config/description="A Witness-like puzzle game with story elements for Mac, iPhone, and iPad."
config/tags=PackedStringArray("development", "dotnet")
run/main_scene="res://components/world.tscn"
config/features=PackedStringArray("4.3", "C#", "Mobile")
config/icon="res://icon.png"
config/macos_native_icon="res://icon.icns"

[autoload]

RollinsportMessageBus="*res://scripts/Utils/RollinsportMessageBus.cs"

[debug]

shapes/collision/shape_color=Color(1, 1, 1, 0.419608)

[display]

window/size/viewport_width=1600
window/size/viewport_height=900
window/size/mode=3
window/stretch/mode="viewport"
mouse_cursor/custom_image="res://resources/gui/cursor.png"
window/size/mode.debug=0
window/handheld/orientation.ios=4
window/stretch/aspect.mobile="expand"
window/stretch/aspect.debug="expand"
window/size/window_width_override.macos=2800
window/size/window_height_override.macos=1575

[dotnet]

project/assembly_name="Indexing Your Heart"
project/solution_directory="../"

[editor_plugins]

enabled=PackedStringArray("res://addons/gdUnit4/plugin.cfg")

[filesystem]

import/blender/enabled=false

[gdunit4]

settings/test/test_lookup_folder="scripts"
ui/toolbar/run_overall=true

[gui]

fonts/dynamic_fonts/use_oversampling=false
theme/default_font_subpixel_positioning=0

[input]

ui_accept={
"deadzone": 0.5,
"events": [Object(InputEventKey,"resource_local_to_scene":false,"resource_name":"","device":0,"window_id":0,"alt_pressed":false,"shift_pressed":false,"ctrl_pressed":false,"meta_pressed":false,"pressed":false,"keycode":4194309,"physical_keycode":0,"key_label":0,"unicode":0,"location":0,"echo":false,"script":null)
, Object(InputEventKey,"resource_local_to_scene":false,"resource_name":"","device":0,"window_id":0,"alt_pressed":false,"shift_pressed":false,"ctrl_pressed":false,"meta_pressed":false,"pressed":false,"keycode":4194310,"physical_keycode":0,"key_label":0,"unicode":0,"location":0,"echo":false,"script":null)
, Object(InputEventKey,"resource_local_to_scene":false,"resource_name":"","device":0,"window_id":0,"alt_pressed":false,"shift_pressed":false,"ctrl_pressed":false,"meta_pressed":false,"pressed":false,"keycode":32,"physical_keycode":0,"key_label":0,"unicode":32,"location":0,"echo":false,"script":null)
, Object(InputEventJoypadButton,"resource_local_to_scene":false,"resource_name":"","device":-1,"button_index":0,"pressure":0.0,"pressed":false,"script":null)
]
}
ui_cancel={
"deadzone": 0.5,
"events": [Object(InputEventKey,"resource_local_to_scene":false,"resource_name":"","device":0,"window_id":0,"alt_pressed":false,"shift_pressed":false,"ctrl_pressed":false,"meta_pressed":false,"pressed":false,"keycode":4194305,"physical_keycode":0,"key_label":0,"unicode":0,"location":0,"echo":false,"script":null)
, Object(InputEventJoypadButton,"resource_local_to_scene":false,"resource_name":"","device":-1,"button_index":1,"pressure":0.0,"pressed":false,"script":null)
]
}
ui_focus_next={
"deadzone": 0.5,
"events": [Object(InputEventKey,"resource_local_to_scene":false,"resource_name":"","device":0,"window_id":0,"alt_pressed":false,"shift_pressed":false,"ctrl_pressed":false,"meta_pressed":false,"pressed":false,"keycode":4194306,"physical_keycode":0,"key_label":0,"unicode":0,"location":0,"echo":false,"script":null)
, Object(InputEventJoypadButton,"resource_local_to_scene":false,"resource_name":"","device":-1,"button_index":10,"pressure":0.0,"pressed":false,"script":null)
]
}
ui_focus_prev={
"deadzone": 0.5,
"events": [Object(InputEventKey,"resource_local_to_scene":false,"resource_name":"","device":0,"window_id":0,"alt_pressed":false,"shift_pressed":true,"ctrl_pressed":false,"meta_pressed":false,"pressed":false,"keycode":4194306,"physical_keycode":0,"key_label":0,"unicode":0,"location":0,"echo":false,"script":null)
, Object(InputEventJoypadButton,"resource_local_to_scene":false,"resource_name":"","device":-1,"button_index":9,"pressure":0.0,"pressed":false,"script":null)
]
}
move_up={
"deadzone": 0.5,
"events": [Object(InputEventKey,"resource_local_to_scene":false,"resource_name":"","device":-1,"window_id":0,"alt_pressed":false,"shift_pressed":false,"ctrl_pressed":false,"meta_pressed":false,"pressed":false,"keycode":0,"physical_keycode":87,"key_label":0,"unicode":119,"location":0,"echo":false,"script":null)
, Object(InputEventJoypadMotion,"resource_local_to_scene":false,"resource_name":"","device":-1,"axis":1,"axis_value":-1.0,"script":null)
]
}
move_left={
"deadzone": 0.5,
"events": [Object(InputEventKey,"resource_local_to_scene":false,"resource_name":"","device":-1,"window_id":0,"alt_pressed":false,"shift_pressed":false,"ctrl_pressed":false,"meta_pressed":false,"pressed":false,"keycode":0,"physical_keycode":65,"key_label":0,"unicode":97,"location":0,"echo":false,"script":null)
, Object(InputEventJoypadMotion,"resource_local_to_scene":false,"resource_name":"","device":-1,"axis":0,"axis_value":-1.0,"script":null)
]
}
move_right={
"deadzone": 0.5,
"events": [Object(InputEventKey,"resource_local_to_scene":false,"resource_name":"","device":-1,"window_id":0,"alt_pressed":false,"shift_pressed":false,"ctrl_pressed":false,"meta_pressed":false,"pressed":false,"keycode":0,"physical_keycode":68,"key_label":0,"unicode":100,"location":0,"echo":false,"script":null)
, Object(InputEventJoypadMotion,"resource_local_to_scene":false,"resource_name":"","device":-1,"axis":0,"axis_value":1.0,"script":null)
]
}
move_down={
"deadzone": 0.5,
"events": [Object(InputEventKey,"resource_local_to_scene":false,"resource_name":"","device":-1,"window_id":0,"alt_pressed":false,"shift_pressed":false,"ctrl_pressed":false,"meta_pressed":false,"pressed":false,"keycode":0,"physical_keycode":83,"key_label":0,"unicode":115,"location":0,"echo":false,"script":null)
, Object(InputEventJoypadMotion,"resource_local_to_scene":false,"resource_name":"","device":-1,"axis":1,"axis_value":1.0,"script":null)
]
}
interact={
"deadzone": 0.5,
"events": [Object(InputEventKey,"resource_local_to_scene":false,"resource_name":"","device":-1,"window_id":0,"alt_pressed":false,"shift_pressed":false,"ctrl_pressed":false,"meta_pressed":false,"pressed":false,"keycode":0,"physical_keycode":69,"key_label":0,"unicode":101,"location":0,"echo":false,"script":null)
, Object(InputEventJoypadButton,"resource_local_to_scene":false,"resource_name":"","device":-1,"button_index":0,"pressure":0.0,"pressed":true,"script":null)
]
}
cancel={
"deadzone": 0.5,
"events": [Object(InputEventKey,"resource_local_to_scene":false,"resource_name":"","device":-1,"window_id":0,"alt_pressed":false,"shift_pressed":false,"ctrl_pressed":false,"meta_pressed":false,"pressed":false,"keycode":0,"physical_keycode":4194305,"key_label":0,"unicode":0,"location":0,"echo":false,"script":null)
, Object(InputEventJoypadButton,"resource_local_to_scene":false,"resource_name":"","device":-1,"button_index":1,"pressure":0.0,"pressed":true,"script":null)
]
}
timeline_next={
"deadzone": 0.5,
"events": [Object(InputEventKey,"resource_local_to_scene":false,"resource_name":"","device":-1,"window_id":0,"alt_pressed":false,"shift_pressed":false,"ctrl_pressed":false,"meta_pressed":false,"pressed":false,"keycode":0,"physical_keycode":32,"key_label":0,"unicode":32,"location":0,"echo":false,"script":null)
, Object(InputEventJoypadButton,"resource_local_to_scene":false,"resource_name":"","device":-1,"button_index":0,"pressure":0.0,"pressed":true,"script":null)
]
}
switch_character={
"deadzone": 0.5,
"events": [Object(InputEventKey,"resource_local_to_scene":false,"resource_name":"","device":-1,"window_id":0,"alt_pressed":false,"shift_pressed":false,"ctrl_pressed":false,"meta_pressed":false,"pressed":false,"keycode":0,"physical_keycode":70,"key_label":0,"unicode":102,"location":0,"echo":false,"script":null)
, Object(InputEventJoypadButton,"resource_local_to_scene":false,"resource_name":"","device":-1,"button_index":2,"pressure":0.0,"pressed":true,"script":null)
]
}

[rendering]

textures/vram_compression/import_s3tc_bptc=true
textures/vram_compression/import_etc2_astc=true
environment/defaults/default_clear_color=Color(0.235294, 0.639216, 0.698039, 1)
2d/snap/snap_2d_transforms_to_pixel=true
2d/snap/snap_2d_vertices_to_pixel=true
