[gd_scene load_steps=8 format=3 uid="uid://ba8hn6o0mkfnp"]

[ext_resource type="Theme" uid="uid://dbup2qc6kea2t" path="res://resources/gui/theme.tres" id="1_wigx5"]
[ext_resource type="PackedScene" uid="uid://dwj644b4yi2u0" path="res://components/ui/numpad.tscn" id="2_i63ja"]
[ext_resource type="Script" path="res://scripts/UI/PuzzleNumpadField.cs" id="2_ydp2o"]

[sub_resource type="Animation" id="Animation_l066x"]
length = 0.001
tracks/0/type = "value"
tracks/0/imported = false
tracks/0/enabled = true
tracks/0/path = NodePath("VStack/PanelContainer/NumberLabel:modulate")
tracks/0/interp = 1
tracks/0/loop_wrap = true
tracks/0/keys = {
"times": PackedFloat32Array(0),
"transitions": PackedFloat32Array(1),
"update": 0,
"values": [Color(1, 1, 1, 1)]
}

[sub_resource type="Animation" id="Animation_cmy82"]
resource_name = "correct"
tracks/0/type = "value"
tracks/0/imported = false
tracks/0/enabled = true
tracks/0/path = NodePath("VStack/PanelContainer/NumberLabel:modulate")
tracks/0/interp = 1
tracks/0/loop_wrap = true
tracks/0/keys = {
"times": PackedFloat32Array(0),
"transitions": PackedFloat32Array(1),
"update": 0,
"values": [Color(0.419608, 0.988235, 0.984314, 1)]
}

[sub_resource type="Animation" id="Animation_wuvgy"]
resource_name = "incorrect"
length = 4.0
tracks/0/type = "value"
tracks/0/imported = false
tracks/0/enabled = true
tracks/0/path = NodePath("VStack/PanelContainer/NumberLabel:modulate")
tracks/0/interp = 2
tracks/0/loop_wrap = true
tracks/0/keys = {
"times": PackedFloat32Array(0, 1, 2),
"transitions": PackedFloat32Array(1, 1, 1),
"update": 0,
"values": [Color(1, 1, 1, 1), Color(0.827451, 0, 0, 1), Color(1, 1, 1, 1)]
}

[sub_resource type="AnimationLibrary" id="AnimationLibrary_0ieew"]
_data = {
"RESET": SubResource("Animation_l066x"),
"correct": SubResource("Animation_cmy82"),
"incorrect": SubResource("Animation_wuvgy")
}

[node name="NumpadPuzzleField" type="Control"]
texture_filter = 1
layout_mode = 3
anchors_preset = 15
anchor_right = 1.0
anchor_bottom = 1.0
grow_horizontal = 2
grow_vertical = 2
theme = ExtResource("1_wigx5")
script = ExtResource("2_ydp2o")

[node name="VStack" type="VBoxContainer" parent="."]
layout_mode = 1
anchors_preset = -1
anchor_left = 0.824
anchor_top = 0.036
anchor_right = 0.98
anchor_bottom = 0.964
offset_left = -0.400097
offset_top = -0.399999
offset_right = -3.05176e-05
offset_bottom = 0.399958
grow_horizontal = 0
grow_vertical = 2
alignment = 2

[node name="PanelContainer" type="PanelContainer" parent="VStack"]
custom_minimum_size = Vector2(200, 2.08165e-12)
layout_mode = 2

[node name="NumberLabel" type="Label" parent="VStack/PanelContainer"]
layout_mode = 2
theme_override_colors/font_outline_color = Color(0, 0, 0, 1)
theme_override_constants/outline_size = 8
theme_override_font_sizes/font_size = 36
text = "???"
horizontal_alignment = 1
vertical_alignment = 1

[node name="Numpad" parent="VStack" instance=ExtResource("2_i63ja")]
custom_minimum_size = Vector2(224, 448)
layout_mode = 2
size_flags_horizontal = 4
size_flags_vertical = 3
size_flags_stretch_ratio = 0.0

[node name="Animator" type="AnimationPlayer" parent="."]
libraries = {
"": SubResource("AnimationLibrary_0ieew")
}
