[gd_scene load_steps=12 format=3 uid="uid://d3xhnxqyltvn6"]

[ext_resource type="Script" path="res://scripts/UI/JensonTimeline.cs" id="1_8tixa"]
[ext_resource type="Theme" uid="uid://dbup2qc6kea2t" path="res://resources/gui/theme.tres" id="2_m83yl"]
[ext_resource type="FontVariation" uid="uid://6wx5exwfyd5f" path="res://resources/gui/typewriter_bold_font.tres" id="3_ern7x"]
[ext_resource type="FontVariation" uid="uid://dstlje76bbo1t" path="res://resources/gui/typewriter_regular_font.tres" id="3_h3uwv"]

[sub_resource type="Animation" id="Animation_iwom0"]
length = 0.001
tracks/0/type = "value"
tracks/0/imported = false
tracks/0/enabled = true
tracks/0/path = NodePath("Dialogue Tape/VBoxContainer/What Label:visible_ratio")
tracks/0/interp = 1
tracks/0/loop_wrap = true
tracks/0/keys = {
"times": PackedFloat32Array(0),
"transitions": PackedFloat32Array(1),
"update": 0,
"values": [0.0]
}
tracks/1/type = "bezier"
tracks/1/imported = false
tracks/1/enabled = true
tracks/1/path = NodePath("Background:modulate:r")
tracks/1/interp = 1
tracks/1/loop_wrap = true
tracks/1/keys = {
"handle_modes": PackedInt32Array(0),
"points": PackedFloat32Array(1, -0.25, 0, 0.25, 0),
"times": PackedFloat32Array(0)
}
tracks/2/type = "bezier"
tracks/2/imported = false
tracks/2/enabled = true
tracks/2/path = NodePath("Background:modulate:g")
tracks/2/interp = 1
tracks/2/loop_wrap = true
tracks/2/keys = {
"handle_modes": PackedInt32Array(0),
"points": PackedFloat32Array(1, -0.25, 0, 0.25, 0),
"times": PackedFloat32Array(0)
}
tracks/3/type = "bezier"
tracks/3/imported = false
tracks/3/enabled = true
tracks/3/path = NodePath("Background:modulate:b")
tracks/3/interp = 1
tracks/3/loop_wrap = true
tracks/3/keys = {
"handle_modes": PackedInt32Array(0),
"points": PackedFloat32Array(1, -0.25, 0, 0.25, 0),
"times": PackedFloat32Array(0)
}
tracks/4/type = "bezier"
tracks/4/imported = false
tracks/4/enabled = true
tracks/4/path = NodePath("Background:modulate:a")
tracks/4/interp = 1
tracks/4/loop_wrap = true
tracks/4/keys = {
"handle_modes": PackedInt32Array(0),
"points": PackedFloat32Array(0, -0.25, 0, 0.25, 0),
"times": PackedFloat32Array(0)
}
tracks/5/type = "bezier"
tracks/5/imported = false
tracks/5/enabled = true
tracks/5/path = NodePath("Single Speaker:modulate:r")
tracks/5/interp = 1
tracks/5/loop_wrap = true
tracks/5/keys = {
"handle_modes": PackedInt32Array(0),
"points": PackedFloat32Array(1, -0.25, 0, 0.25, 0),
"times": PackedFloat32Array(0)
}
tracks/6/type = "bezier"
tracks/6/imported = false
tracks/6/enabled = true
tracks/6/path = NodePath("Single Speaker:modulate:g")
tracks/6/interp = 1
tracks/6/loop_wrap = true
tracks/6/keys = {
"handle_modes": PackedInt32Array(0),
"points": PackedFloat32Array(1, -0.25, 0, 0.25, 0),
"times": PackedFloat32Array(0)
}
tracks/7/type = "bezier"
tracks/7/imported = false
tracks/7/enabled = true
tracks/7/path = NodePath("Single Speaker:modulate:b")
tracks/7/interp = 1
tracks/7/loop_wrap = true
tracks/7/keys = {
"handle_modes": PackedInt32Array(0),
"points": PackedFloat32Array(1, -0.25, 0, 0.25, 0),
"times": PackedFloat32Array(0)
}
tracks/8/type = "bezier"
tracks/8/imported = false
tracks/8/enabled = true
tracks/8/path = NodePath("Single Speaker:modulate:a")
tracks/8/interp = 1
tracks/8/loop_wrap = true
tracks/8/keys = {
"handle_modes": PackedInt32Array(0),
"points": PackedFloat32Array(0, -0.25, 0, 0.25, 0),
"times": PackedFloat32Array(0)
}
tracks/9/type = "bezier"
tracks/9/imported = false
tracks/9/enabled = true
tracks/9/path = NodePath("Multi Speakers/Left Speaker:modulate:r")
tracks/9/interp = 1
tracks/9/loop_wrap = true
tracks/9/keys = {
"handle_modes": PackedInt32Array(0),
"points": PackedFloat32Array(1, -0.25, 0, 0.25, 0),
"times": PackedFloat32Array(0)
}
tracks/10/type = "bezier"
tracks/10/imported = false
tracks/10/enabled = true
tracks/10/path = NodePath("Multi Speakers/Left Speaker:modulate:g")
tracks/10/interp = 1
tracks/10/loop_wrap = true
tracks/10/keys = {
"handle_modes": PackedInt32Array(0),
"points": PackedFloat32Array(1, -0.25, 0, 0.25, 0),
"times": PackedFloat32Array(0)
}
tracks/11/type = "bezier"
tracks/11/imported = false
tracks/11/enabled = true
tracks/11/path = NodePath("Multi Speakers/Left Speaker:modulate:b")
tracks/11/interp = 1
tracks/11/loop_wrap = true
tracks/11/keys = {
"handle_modes": PackedInt32Array(0),
"points": PackedFloat32Array(1, -0.25, 0, 0.25, 0),
"times": PackedFloat32Array(0)
}
tracks/12/type = "bezier"
tracks/12/imported = false
tracks/12/enabled = true
tracks/12/path = NodePath("Multi Speakers/Left Speaker:modulate:a")
tracks/12/interp = 1
tracks/12/loop_wrap = true
tracks/12/keys = {
"handle_modes": PackedInt32Array(0),
"points": PackedFloat32Array(0, -0.25, 0, 0.25, 0),
"times": PackedFloat32Array(0)
}
tracks/13/type = "bezier"
tracks/13/imported = false
tracks/13/enabled = true
tracks/13/path = NodePath("Multi Speakers/Right Speaker:modulate:r")
tracks/13/interp = 1
tracks/13/loop_wrap = true
tracks/13/keys = {
"handle_modes": PackedInt32Array(0),
"points": PackedFloat32Array(1, -0.25, 0, 0.25, 0),
"times": PackedFloat32Array(0)
}
tracks/14/type = "bezier"
tracks/14/imported = false
tracks/14/enabled = true
tracks/14/path = NodePath("Multi Speakers/Right Speaker:modulate:g")
tracks/14/interp = 1
tracks/14/loop_wrap = true
tracks/14/keys = {
"handle_modes": PackedInt32Array(0),
"points": PackedFloat32Array(1, -0.25, 0, 0.25, 0),
"times": PackedFloat32Array(0)
}
tracks/15/type = "bezier"
tracks/15/imported = false
tracks/15/enabled = true
tracks/15/path = NodePath("Multi Speakers/Right Speaker:modulate:b")
tracks/15/interp = 1
tracks/15/loop_wrap = true
tracks/15/keys = {
"handle_modes": PackedInt32Array(0),
"points": PackedFloat32Array(1, -0.25, 0, 0.25, 0),
"times": PackedFloat32Array(0)
}
tracks/16/type = "bezier"
tracks/16/imported = false
tracks/16/enabled = true
tracks/16/path = NodePath("Multi Speakers/Right Speaker:modulate:a")
tracks/16/interp = 1
tracks/16/loop_wrap = true
tracks/16/keys = {
"handle_modes": PackedInt32Array(0),
"points": PackedFloat32Array(0, -0.25, 0, 0.25, 0),
"times": PackedFloat32Array(0)
}

[sub_resource type="Animation" id="Animation_m0inr"]
resource_name = "speech"
length = 3.0
tracks/0/type = "value"
tracks/0/imported = false
tracks/0/enabled = true
tracks/0/path = NodePath("Dialogue Tape/VBoxContainer/What Label:visible_ratio")
tracks/0/interp = 1
tracks/0/loop_wrap = true
tracks/0/keys = {
"times": PackedFloat32Array(0, 3),
"transitions": PackedFloat32Array(1, 1),
"update": 0,
"values": [0.0, 1.0]
}

[sub_resource type="Animation" id="Animation_3ybv0"]
resource_name = "start_timeline"
length = 1.5
tracks/0/type = "bezier"
tracks/0/imported = false
tracks/0/enabled = true
tracks/0/path = NodePath("Background:modulate:r")
tracks/0/interp = 1
tracks/0/loop_wrap = true
tracks/0/keys = {
"handle_modes": PackedInt32Array(0, 0),
"points": PackedFloat32Array(1, -0.25, 0, 0.25, 0, 1, -0.25, 0, 0.25, 0),
"times": PackedFloat32Array(0, 1.5)
}
tracks/1/type = "bezier"
tracks/1/imported = false
tracks/1/enabled = true
tracks/1/path = NodePath("Background:modulate:g")
tracks/1/interp = 1
tracks/1/loop_wrap = true
tracks/1/keys = {
"handle_modes": PackedInt32Array(0, 0),
"points": PackedFloat32Array(1, -0.25, 0, 0.25, 0, 1, -0.25, 0, 0.25, 0),
"times": PackedFloat32Array(0, 1.5)
}
tracks/2/type = "bezier"
tracks/2/imported = false
tracks/2/enabled = true
tracks/2/path = NodePath("Background:modulate:b")
tracks/2/interp = 1
tracks/2/loop_wrap = true
tracks/2/keys = {
"handle_modes": PackedInt32Array(0, 0),
"points": PackedFloat32Array(1, -0.25, 0, 0.25, 0, 1, -0.25, 0, 0.25, 0),
"times": PackedFloat32Array(0, 1.5)
}
tracks/3/type = "bezier"
tracks/3/imported = false
tracks/3/enabled = true
tracks/3/path = NodePath("Background:modulate:a")
tracks/3/interp = 1
tracks/3/loop_wrap = true
tracks/3/keys = {
"handle_modes": PackedInt32Array(0, 0),
"points": PackedFloat32Array(0, -0.25, 0, 0.25, 0, 1, -0.25, 0, 0.25, 0),
"times": PackedFloat32Array(0, 1.5)
}
tracks/4/type = "bezier"
tracks/4/imported = false
tracks/4/enabled = true
tracks/4/path = NodePath("Single Speaker:modulate:r")
tracks/4/interp = 1
tracks/4/loop_wrap = true
tracks/4/keys = {
"handle_modes": PackedInt32Array(0, 0),
"points": PackedFloat32Array(1, -0.25, 0, 0.25, 0, 1, -0.25, 0, 0.25, 0),
"times": PackedFloat32Array(0, 1.5)
}
tracks/5/type = "bezier"
tracks/5/imported = false
tracks/5/enabled = true
tracks/5/path = NodePath("Single Speaker:modulate:g")
tracks/5/interp = 1
tracks/5/loop_wrap = true
tracks/5/keys = {
"handle_modes": PackedInt32Array(0, 0),
"points": PackedFloat32Array(1, -0.25, 0, 0.25, 0, 1, -0.25, 0, 0.25, 0),
"times": PackedFloat32Array(0, 1.5)
}
tracks/6/type = "bezier"
tracks/6/imported = false
tracks/6/enabled = true
tracks/6/path = NodePath("Single Speaker:modulate:b")
tracks/6/interp = 1
tracks/6/loop_wrap = true
tracks/6/keys = {
"handle_modes": PackedInt32Array(0, 0),
"points": PackedFloat32Array(1, -0.25, 0, 0.25, 0, 1, -0.25, 0, 0.25, 0),
"times": PackedFloat32Array(0, 1.5)
}
tracks/7/type = "bezier"
tracks/7/imported = false
tracks/7/enabled = true
tracks/7/path = NodePath("Single Speaker:modulate:a")
tracks/7/interp = 1
tracks/7/loop_wrap = true
tracks/7/keys = {
"handle_modes": PackedInt32Array(0, 0),
"points": PackedFloat32Array(0, -0.25, 0, 0.25, 0, 1, -0.25, 0, 0.25, 0),
"times": PackedFloat32Array(0, 1.5)
}
tracks/8/type = "bezier"
tracks/8/imported = false
tracks/8/enabled = true
tracks/8/path = NodePath("Multi Speakers/Left Speaker:modulate:r")
tracks/8/interp = 1
tracks/8/loop_wrap = true
tracks/8/keys = {
"handle_modes": PackedInt32Array(0, 0),
"points": PackedFloat32Array(1, -0.25, 0, 0.25, 0, 1, -0.25, 0, 0.25, 0),
"times": PackedFloat32Array(0, 1.5)
}
tracks/9/type = "bezier"
tracks/9/imported = false
tracks/9/enabled = true
tracks/9/path = NodePath("Multi Speakers/Left Speaker:modulate:g")
tracks/9/interp = 1
tracks/9/loop_wrap = true
tracks/9/keys = {
"handle_modes": PackedInt32Array(0, 0),
"points": PackedFloat32Array(1, -0.25, 0, 0.25, 0, 1, -0.25, 0, 0.25, 0),
"times": PackedFloat32Array(0, 1.5)
}
tracks/10/type = "bezier"
tracks/10/imported = false
tracks/10/enabled = true
tracks/10/path = NodePath("Multi Speakers/Left Speaker:modulate:b")
tracks/10/interp = 1
tracks/10/loop_wrap = true
tracks/10/keys = {
"handle_modes": PackedInt32Array(0, 0),
"points": PackedFloat32Array(1, -0.25, 0, 0.25, 0, 1, -0.25, 0, 0.25, 0),
"times": PackedFloat32Array(0, 1.5)
}
tracks/11/type = "bezier"
tracks/11/imported = false
tracks/11/enabled = true
tracks/11/path = NodePath("Multi Speakers/Left Speaker:modulate:a")
tracks/11/interp = 1
tracks/11/loop_wrap = true
tracks/11/keys = {
"handle_modes": PackedInt32Array(0, 0),
"points": PackedFloat32Array(0, -0.25, 0, 0.25, 0, 1, -0.25, 0, 0.25, 0),
"times": PackedFloat32Array(0, 1.5)
}
tracks/12/type = "bezier"
tracks/12/imported = false
tracks/12/enabled = true
tracks/12/path = NodePath("Multi Speakers/Right Speaker:modulate:r")
tracks/12/interp = 1
tracks/12/loop_wrap = true
tracks/12/keys = {
"handle_modes": PackedInt32Array(0, 0),
"points": PackedFloat32Array(1, -0.25, 0, 0.25, 0, 1, -0.25, 0, 0.25, 0),
"times": PackedFloat32Array(0, 1.5)
}
tracks/13/type = "bezier"
tracks/13/imported = false
tracks/13/enabled = true
tracks/13/path = NodePath("Multi Speakers/Right Speaker:modulate:g")
tracks/13/interp = 1
tracks/13/loop_wrap = true
tracks/13/keys = {
"handle_modes": PackedInt32Array(0, 0),
"points": PackedFloat32Array(1, -0.25, 0, 0.25, 0, 1, -0.25, 0, 0.25, 0),
"times": PackedFloat32Array(0, 1.5)
}
tracks/14/type = "bezier"
tracks/14/imported = false
tracks/14/enabled = true
tracks/14/path = NodePath("Multi Speakers/Right Speaker:modulate:b")
tracks/14/interp = 1
tracks/14/loop_wrap = true
tracks/14/keys = {
"handle_modes": PackedInt32Array(0, 0),
"points": PackedFloat32Array(1, -0.25, 0, 0.25, 0, 1, -0.25, 0, 0.25, 0),
"times": PackedFloat32Array(0, 1.5)
}
tracks/15/type = "bezier"
tracks/15/imported = false
tracks/15/enabled = true
tracks/15/path = NodePath("Multi Speakers/Right Speaker:modulate:a")
tracks/15/interp = 1
tracks/15/loop_wrap = true
tracks/15/keys = {
"handle_modes": PackedInt32Array(0, 0),
"points": PackedFloat32Array(0, -0.25, 0, 0.25, 0, 1, -0.25, 0, 0.25, 0),
"times": PackedFloat32Array(0, 1.5)
}

[sub_resource type="AnimationLibrary" id="AnimationLibrary_jfjxg"]
_data = {
"RESET": SubResource("Animation_iwom0"),
"speech": SubResource("Animation_m0inr"),
"start_timeline": SubResource("Animation_3ybv0")
}

[sub_resource type="StyleBoxFlat" id="StyleBoxFlat_ubefd"]
bg_color = Color(0.192157, 0.160784, 0.184314, 0.847059)
corner_radius_top_left = 4
corner_radius_top_right = 4
corner_radius_bottom_right = 4
corner_radius_bottom_left = 4

[sub_resource type="LabelSettings" id="LabelSettings_4q5km"]
font = ExtResource("3_ern7x")
font_size = 36
font_color = Color(0.513726, 0.737255, 0.980392, 1)

[sub_resource type="LabelSettings" id="LabelSettings_1608h"]
font = ExtResource("3_h3uwv")
font_size = 27
font_color = Color(0.760784, 0.709804, 0.682353, 1)

[node name="JensonTimeline" type="Control"]
layout_mode = 3
anchors_preset = 15
anchor_right = 1.0
anchor_bottom = 1.0
grow_horizontal = 2
grow_vertical = 2
script = ExtResource("1_8tixa")

[node name="AnimationPlayer" type="AnimationPlayer" parent="."]
libraries = {
"": SubResource("AnimationLibrary_jfjxg")
}

[node name="Background" type="TextureRect" parent="."]
modulate = Color(1, 1, 1, 0)
texture_filter = 4
layout_mode = 1
anchors_preset = 15
anchor_right = 1.0
anchor_bottom = 1.0
grow_horizontal = 2
grow_vertical = 2
expand_mode = 3
stretch_mode = 6

[node name="Single Speaker" type="TextureRect" parent="."]
modulate = Color(1, 1, 1, 0)
layout_mode = 1
anchors_preset = -1
anchor_left = 0.25
anchor_right = 0.75
anchor_bottom = 1.0
offset_right = -9.53674e-05
grow_horizontal = 2
grow_vertical = 2
expand_mode = 3
stretch_mode = 5

[node name="Multi Speakers" type="HBoxContainer" parent="."]
layout_mode = 1
anchors_preset = 15
anchor_right = 1.0
anchor_bottom = 1.0
grow_horizontal = 2
grow_vertical = 2
alignment = 1

[node name="Left Speaker" type="TextureRect" parent="Multi Speakers"]
modulate = Color(1, 1, 1, 0)
custom_minimum_size = Vector2(200, 2.08165e-12)
layout_mode = 2
size_flags_horizontal = 3
expand_mode = 3
stretch_mode = 5

[node name="Right Speaker" type="TextureRect" parent="Multi Speakers"]
modulate = Color(1, 1, 1, 0)
custom_minimum_size = Vector2(200, 2.08165e-12)
layout_mode = 2
size_flags_horizontal = 3
expand_mode = 3
stretch_mode = 5

[node name="Choice Menu" type="VBoxContainer" parent="."]
visible = false
layout_mode = 1
anchors_preset = -1
anchor_left = 0.219
anchor_right = 0.781
anchor_bottom = 1.0
offset_left = -0.400019
offset_right = 0.399971
grow_horizontal = 2
grow_vertical = 2
alignment = 1

[node name="Template Button" type="Button" parent="Choice Menu"]
custom_minimum_size = Vector2(2.08165e-12, 56)
layout_mode = 2
theme = ExtResource("2_m83yl")
theme_override_colors/font_color = Color(0.760784, 0.709804, 0.682353, 1)
theme_override_fonts/font = ExtResource("3_h3uwv")
theme_override_font_sizes/font_size = 27
theme_override_styles/normal = SubResource("StyleBoxFlat_ubefd")
text = "Template Button"

[node name="Dialogue Tape" type="ColorRect" parent="."]
layout_mode = 1
anchors_preset = -1
anchor_top = 0.604
anchor_right = 1.0
anchor_bottom = 1.0
offset_top = 0.399971
color = Color(0.2, 0.160784, 0.184314, 0.980392)

[node name="VBoxContainer" type="VBoxContainer" parent="Dialogue Tape"]
layout_mode = 1
anchors_preset = -1
anchor_right = 1.0
anchor_bottom = 1.0
offset_left = 96.0
offset_top = 12.0
offset_right = -96.0
offset_bottom = -12.0
grow_horizontal = 2
grow_vertical = 2

[node name="Who Label" type="Label" parent="Dialogue Tape/VBoxContainer"]
layout_mode = 2
theme_override_fonts/font = ExtResource("3_ern7x")
text = "John Smith"
label_settings = SubResource("LabelSettings_4q5km")
uppercase = true

[node name="What Label" type="Label" parent="Dialogue Tape/VBoxContainer"]
custom_minimum_size = Vector2(0, 16)
layout_mode = 2
text = "Through many births, I have wandered on and on, searching for, but never finding, the builder of this house."
label_settings = SubResource("LabelSettings_1608h")
autowrap_mode = 3
visible_characters = 0
visible_ratio = 0.0
