[gd_scene load_steps=33 format=3 uid="uid://bhdu82yikkqf3"]

[ext_resource type="Script" path="res://scripts/Entities/AnthroPlayer.cs" id="1_owqaw"]
[ext_resource type="AudioStream" uid="uid://exgvugr2j1wk" path="res://resources/sounds/fs_grass_01.mp3" id="2_706ek"]
[ext_resource type="Texture2D" uid="uid://b1d5u8txom028" path="res://resources/sprt_chelsea.png" id="2_r517x"]
[ext_resource type="AudioStream" uid="uid://lwsjrc1wgad3" path="res://resources/sounds/fs_grass_02.mp3" id="3_5sx88"]
[ext_resource type="AudioStream" uid="uid://mojt3nu4nn0p" path="res://resources/sounds/fs_grass_03.mp3" id="4_1vfms"]
[ext_resource type="AudioStream" uid="uid://cn30gppi1fgyn" path="res://resources/sounds/fs_grass_04.mp3" id="5_1xbye"]

[sub_resource type="Animation" id="Animation_shu7v"]
length = 0.001
tracks/0/type = "value"
tracks/0/imported = false
tracks/0/enabled = true
tracks/0/path = NodePath(".:frame")
tracks/0/interp = 1
tracks/0/loop_wrap = true
tracks/0/keys = {
"times": PackedFloat32Array(0),
"transitions": PackedFloat32Array(1),
"update": 1,
"values": [12]
}

[sub_resource type="Animation" id="Animation_8ss7f"]
resource_name = "idle_back"
loop_mode = 1
tracks/0/type = "value"
tracks/0/imported = false
tracks/0/enabled = true
tracks/0/path = NodePath(".:frame")
tracks/0/interp = 1
tracks/0/loop_wrap = true
tracks/0/keys = {
"times": PackedFloat32Array(0, 0.2, 0.4, 0.6, 0.8, 1),
"transitions": PackedFloat32Array(1, 1, 1, 1, 1, 1),
"update": 1,
"values": [18, 19, 20, 21, 22, 23]
}

[sub_resource type="Animation" id="Animation_x0wac"]
resource_name = "idle_forward"
loop_mode = 1
tracks/0/type = "value"
tracks/0/imported = false
tracks/0/enabled = true
tracks/0/path = NodePath(".:frame")
tracks/0/interp = 1
tracks/0/loop_wrap = true
tracks/0/keys = {
"times": PackedFloat32Array(0, 0.2, 0.4, 0.6, 0.8, 1),
"transitions": PackedFloat32Array(1, 1, 1, 1, 1, 1),
"update": 1,
"values": [30, 31, 32, 33, 34, 35]
}

[sub_resource type="Animation" id="Animation_yabg5"]
resource_name = "idle_left"
loop_mode = 1
tracks/0/type = "value"
tracks/0/imported = false
tracks/0/enabled = true
tracks/0/path = NodePath(".:frame")
tracks/0/interp = 1
tracks/0/loop_wrap = true
tracks/0/keys = {
"times": PackedFloat32Array(0, 0.2, 0.4, 0.6, 0.8, 1),
"transitions": PackedFloat32Array(1, 1, 1, 1, 1, 1),
"update": 1,
"values": [24, 25, 26, 27, 28, 29]
}

[sub_resource type="Animation" id="Animation_syps1"]
resource_name = "idle_right"
loop_mode = 1
tracks/0/type = "value"
tracks/0/imported = false
tracks/0/enabled = true
tracks/0/path = NodePath(".:frame")
tracks/0/interp = 1
tracks/0/loop_wrap = true
tracks/0/keys = {
"times": PackedFloat32Array(0, 0.2, 0.4, 0.6, 0.8, 1),
"transitions": PackedFloat32Array(1, 1, 1, 1, 1, 1),
"update": 1,
"values": [12, 13, 14, 15, 16, 17]
}

[sub_resource type="Animation" id="Animation_fvpil"]
resource_name = "run_back"
loop_mode = 1
tracks/0/type = "value"
tracks/0/imported = false
tracks/0/enabled = true
tracks/0/path = NodePath(".:frame")
tracks/0/interp = 1
tracks/0/loop_wrap = true
tracks/0/keys = {
"times": PackedFloat32Array(0, 0.2, 0.4, 0.6, 0.8, 1),
"transitions": PackedFloat32Array(1, 1, 1, 1, 1, 1),
"update": 1,
"values": [42, 43, 44, 45, 46, 47]
}

[sub_resource type="Animation" id="Animation_hvy7l"]
resource_name = "run_forward"
loop_mode = 1
tracks/0/type = "value"
tracks/0/imported = false
tracks/0/enabled = true
tracks/0/path = NodePath(".:frame")
tracks/0/interp = 1
tracks/0/loop_wrap = true
tracks/0/keys = {
"times": PackedFloat32Array(0, 0.2, 0.4, 0.6, 0.8, 1),
"transitions": PackedFloat32Array(1, 1, 1, 1, 1, 1),
"update": 1,
"values": [54, 55, 56, 57, 58, 59]
}

[sub_resource type="Animation" id="Animation_w8jqm"]
resource_name = "run_left"
loop_mode = 1
tracks/0/type = "value"
tracks/0/imported = false
tracks/0/enabled = true
tracks/0/path = NodePath(".:frame")
tracks/0/interp = 1
tracks/0/loop_wrap = true
tracks/0/keys = {
"times": PackedFloat32Array(0, 0.2, 0.4, 0.6, 0.8, 1),
"transitions": PackedFloat32Array(1, 1, 1, 1, 1, 1),
"update": 1,
"values": [48, 49, 50, 51, 52, 53]
}

[sub_resource type="Animation" id="Animation_y4to3"]
resource_name = "run_right"
loop_mode = 1
tracks/0/type = "value"
tracks/0/imported = false
tracks/0/enabled = true
tracks/0/path = NodePath(".:frame")
tracks/0/interp = 1
tracks/0/loop_wrap = true
tracks/0/keys = {
"times": PackedFloat32Array(0, 0.2, 0.4, 0.6, 0.8, 1),
"transitions": PackedFloat32Array(1, 1, 1, 1, 1, 1),
"update": 1,
"values": [36, 37, 38, 39, 40, 41]
}

[sub_resource type="AnimationLibrary" id="AnimationLibrary_hsx20"]
_data = {
"RESET": SubResource("Animation_shu7v"),
"idle_back": SubResource("Animation_8ss7f"),
"idle_forward": SubResource("Animation_x0wac"),
"idle_left": SubResource("Animation_yabg5"),
"idle_right": SubResource("Animation_syps1"),
"run_back": SubResource("Animation_fvpil"),
"run_forward": SubResource("Animation_hvy7l"),
"run_left": SubResource("Animation_w8jqm"),
"run_right": SubResource("Animation_y4to3")
}

[sub_resource type="AnimationNodeAnimation" id="AnimationNodeAnimation_osqnh"]
animation = &"idle_forward"

[sub_resource type="AnimationNodeAnimation" id="AnimationNodeAnimation_cd0f7"]
animation = &"idle_right"

[sub_resource type="AnimationNodeAnimation" id="AnimationNodeAnimation_iuutg"]
animation = &"idle_back"

[sub_resource type="AnimationNodeAnimation" id="AnimationNodeAnimation_qn7rl"]
animation = &"idle_left"

[sub_resource type="AnimationNodeBlendSpace2D" id="AnimationNodeBlendSpace2D_etor2"]
blend_point_0/node = SubResource("AnimationNodeAnimation_osqnh")
blend_point_0/pos = Vector2(0, 1)
blend_point_1/node = SubResource("AnimationNodeAnimation_cd0f7")
blend_point_1/pos = Vector2(1, 0)
blend_point_2/node = SubResource("AnimationNodeAnimation_iuutg")
blend_point_2/pos = Vector2(0, -1)
blend_point_3/node = SubResource("AnimationNodeAnimation_qn7rl")
blend_point_3/pos = Vector2(-1, 0)
blend_mode = 1

[sub_resource type="AnimationNodeAnimation" id="AnimationNodeAnimation_sffn2"]
animation = &"run_forward"

[sub_resource type="AnimationNodeAnimation" id="AnimationNodeAnimation_70xkj"]
animation = &"run_right"

[sub_resource type="AnimationNodeAnimation" id="AnimationNodeAnimation_ejp1c"]
animation = &"run_back"

[sub_resource type="AnimationNodeAnimation" id="AnimationNodeAnimation_l8idt"]
animation = &"run_left"

[sub_resource type="AnimationNodeBlendSpace2D" id="AnimationNodeBlendSpace2D_6nbye"]
blend_point_0/node = SubResource("AnimationNodeAnimation_sffn2")
blend_point_0/pos = Vector2(0, 1)
blend_point_1/node = SubResource("AnimationNodeAnimation_70xkj")
blend_point_1/pos = Vector2(1, 0)
blend_point_2/node = SubResource("AnimationNodeAnimation_ejp1c")
blend_point_2/pos = Vector2(0, -1)
blend_point_3/node = SubResource("AnimationNodeAnimation_l8idt")
blend_point_3/pos = Vector2(-1, 0)
blend_mode = 1

[sub_resource type="AnimationNodeStateMachineTransition" id="AnimationNodeStateMachineTransition_7tdbl"]
advance_mode = 2

[sub_resource type="AnimationNodeStateMachineTransition" id="AnimationNodeStateMachineTransition_kqhc4"]
reset = false
advance_mode = 2
advance_condition = &"walking"

[sub_resource type="AnimationNodeStateMachineTransition" id="AnimationNodeStateMachineTransition_1gt4t"]
reset = false
advance_mode = 2
advance_condition = &"idling"

[sub_resource type="AnimationNodeStateMachine" id="AnimationNodeStateMachine_u2fhk"]
states/End/position = Vector2(652, 96.3086)
states/Idle/node = SubResource("AnimationNodeBlendSpace2D_etor2")
states/Idle/position = Vector2(369.5, 99.2968)
states/Start/position = Vector2(243.5, 99.1797)
states/Walk/node = SubResource("AnimationNodeBlendSpace2D_6nbye")
states/Walk/position = Vector2(529.5, 98.5547)
transitions = ["Start", "Idle", SubResource("AnimationNodeStateMachineTransition_7tdbl"), "Idle", "Walk", SubResource("AnimationNodeStateMachineTransition_kqhc4"), "Walk", "Idle", SubResource("AnimationNodeStateMachineTransition_1gt4t")]
graph_offset = Vector2(-192.136, 0)

[sub_resource type="CapsuleShape2D" id="CapsuleShape2D_hyn65"]
radius = 16.0
height = 44.0

[sub_resource type="AudioStreamRandomizer" id="AudioStreamRandomizer_if7a2"]
streams_count = 4
stream_0/stream = ExtResource("2_706ek")
stream_0/weight = 1.0
stream_1/stream = ExtResource("3_5sx88")
stream_1/weight = 1.0
stream_2/stream = ExtResource("4_1vfms")
stream_2/weight = 1.0
stream_3/stream = ExtResource("5_1xbye")
stream_3/weight = 1.0

[node name="Player" type="CharacterBody2D"]
y_sort_enabled = true
scale = Vector2(0.5, 0.5)
script = ExtResource("1_owqaw")

[node name="Sprite" type="Sprite2D" parent="."]
texture_filter = 1
texture_repeat = 1
position = Vector2(0, -42)
scale = Vector2(2, 2)
texture = ExtResource("2_r517x")
hframes = 12
vframes = 5
frame = 12

[node name="AnimationPlayer" type="AnimationPlayer" parent="Sprite"]
libraries = {
"": SubResource("AnimationLibrary_hsx20")
}

[node name="AnimationTree" type="AnimationTree" parent="Sprite"]
active = false
tree_root = SubResource("AnimationNodeStateMachine_u2fhk")
anim_player = NodePath("../AnimationPlayer")
parameters/conditions/idling = false
parameters/conditions/walking = false
parameters/Idle/blend_position = Vector2(-0.000395417, 0.766234)
parameters/Walk/blend_position = Vector2(-0.212883, -0.207792)

[node name="CollisionShape2D" type="CollisionShape2D" parent="."]
position = Vector2(0, -20)
shape = SubResource("CapsuleShape2D_hyn65")

[node name="Navigator" type="NavigationAgent2D" parent="."]
path_desired_distance = 4.0
target_desired_distance = 4.0
avoidance_enabled = true
radius = 48.0

[node name="Footsteps" type="AudioStreamPlayer2D" parent="."]
stream = SubResource("AudioStreamRandomizer_if7a2")
